L = 2;
H = 3;
lc = 0.005;
LC = 25*lc;
Mesh.Algorithm=5;
Point(0) = {0.983320,0.005300,0.000000,lc};
Point(1) = {0.962560,0.010180,0.000000,lc};
Point(2) = {0.933970,0.016720,0.000000,lc};
Point(3) = {0.898010,0.024630,0.000000,lc};
Point(4) = {0.855260,0.033610,0.000000,lc};
Point(5) = {0.806440,0.043310,0.000000,lc};
Point(6) = {0.752360,0.053390,0.000000,lc};
Point(7) = {0.693930,0.063490,0.000000,lc};
Point(8) = {0.632120,0.073250,0.000000,lc};
Point(9) = {0.567990,0.082330,0.000000,lc};
Point(10) = {0.502640,0.090370,0.000000,lc};
Point(11) = {0.437190,0.097060,0.000000,lc};
Point(12) = {0.372780,0.102080,0.000000,lc};
Point(13) = {0.310510,0.105210,0.000000,lc};
Point(14) = {0.251480,0.106270,0.000000,lc};
Point(15) = {0.196740,0.105190,0.000000,lc};
Point(16) = {0.147220,0.102010,0.000000,lc};
Point(17) = {0.103810,0.096840,0.000000,lc};
Point(18) = {0.067260,0.089920,0.000000,lc};
Point(19) = {0.038180,0.081510,0.000000,lc};
Point(20) = {0.017070,0.071890,0.000000,lc};
Point(21) = {0.000000,0.050000,0.000000,lc};
Point(22) = {0.017000,0.028080,0.000000,lc};
Point(23) = {0.037940,0.018350,0.000000,lc};
Point(24) = {0.066720,0.009630,0.000000,lc};
Point(25) = {0.102830,0.002090,0.000000,lc};
Point(26) = {0.145670,-0.004150,0.000000,lc};
Point(27) = {0.194500,-0.009020,0.000000,lc};
Point(28) = {0.248520,-0.012520,0.000000,lc};
Point(29) = {0.306810,-0.014730,0.000000,lc};
Point(30) = {0.368410,-0.015810,0.000000,lc};
Point(31) = {0.432280,-0.015960,0.000000,lc};
Point(32) = {0.497360,-0.015370,0.000000,lc};
Point(33) = {0.562530,-0.014280,0.000000,lc};
Point(34) = {0.626700,-0.012870,0.000000,lc};
Point(35) = {0.688760,-0.011280,0.000000,lc};
Point(36) = {0.747640,-0.009640,0.000000,lc};
Point(37) = {0.802320,-0.008010,0.000000,lc};
Point(38) = {0.851840,-0.006460,0.000000,lc};
Point(39) = {0.895350,-0.005030,0.000000,lc};
Point(40) = {0.932060,-0.003770,0.000000,lc};
Point(41) = {0.961320,-0.002710,0.000000,lc};
Point(42) = {0.982610,-0.001920,0.000000,lc};
Point(43) = {0.995540,-0.001420,0.000000,lc};
Spline(44) = {0:42};
Spline(45) = {42,43,0};
Point(45) = {-H,-L,0,LC};
Point(46) = {-H,L,0,LC};
Point(47) = {H,L,0,LC};
Point(48) = {H,-L,0,LC};
Line(49) = {45,46};
Line(50) = {46,47};
Line(51) = {47,48};
Line(52) = {48,45};
Line Loop(53) = {44:45};
Line Loop(54) = {49:52};
Plane Surface(55) = {53,54};
Field[1] = Attractor;
Field[1].NodesList = {0,43,44};
Field[1].NNodesByEdge = 100;
Field[2] = Threshold;
Field[2].IField = 1;
Field[2].LcMin = lc/2;
Field[2].LcMax = lc;
Field[2].DistMin = lc;
Field[2].DistMax = 10*lc;
Physical Line("farfield") = {50, 49, 52, 51};
Physical Line("wing") = {44};
Physical Surface("air") = {55};
